Final Project
…
phase_portrait$data[[1]]

## # A tibble: 1,515 x 11
##    trial joint frame raw_angle norm_angle max_angle min_angle raw_velocity
##    <fct> <fct> <fct>     <dbl>      <dbl>     <dbl>     <dbl>        <dbl>
##  1 1     ankle 1        -6.54      -0.545         1        -1        55.0 
##  2 1     ankle 2        -5.83      -0.513         1        -1        82.1 
##  3 1     ankle 3        -4.78      -0.466         1        -1       110.  
##  4 1     ankle 4        -3.44      -0.406         1        -1       130.  
##  5 1     ankle 5        -1.94      -0.339         1        -1       136.  
##  6 1     ankle 6        -0.515     -0.275         1        -1       126.  
##  7 1     ankle 7         0.644     -0.223         1        -1       102.  
##  8 1     ankle 8         1.41      -0.188         1        -1        71.6 
##  9 1     ankle 9         1.76      -0.172         1        -1        38.8 
## 10 1     ankle 10        1.74      -0.173         1        -1         8.72
## # ... with 1,505 more rows, and 3 more variables: norm_velocity <dbl>,
## #   max_velocity <dbl>, min_velocity <dbl>
…
